~,~,~,~,~,c,~,~,~,~
~,~,~,~,~,c,~,~,~,p
~,~,~,~,~,c,~,~,p,~
~,~,~,~,~,c,~,p,~,~
~,~,~,~,~,~,p,~,~,~
~,~,~,~,~,p,~,~,~,~
~,~,~,~,~,~,~,~,~,~
~,~,~,~,~,~,~,~,~,~
t,t,~,s,s,s,~,~,~,~
~,~,o,o,o,~,~,~,~,~
