~,~,~,~,~,~,~,~,~,~
~,~,~,~,~,~,~,~,~,~
t,t,~,~,~,~,~,~,~,~
~,~,~,~,~,~,~,~,~,~
~,~,~,~,~,~,~,c,~,~
~,~,~,~,~,~,c,~,p,~
~,~,s,s,s,c,~,~,p,~
~,~,~,~,c,~,~,~,p,~
~,~,~,~,~,o,o,o,p,~
~,~,~,~,~,~,~,~,p,~
