~,~,~,~,~,~,~,~,~,~
p,p,p,p,p,~,~,~,~,~
t,~,~,~,~,~,~,~,~,~
t,~,~,~,~,~,s,~,~,~
~,~,~,~,~,~,s,~,~,~
~,~,~,~,~,~,s,~,~,c
~,~,~,~,~,~,o,~,~,c
~,~,~,~,~,~,o,~,~,c
~,~,~,~,~,~,o,~,~,~
~,~,~,~,~,~,o,~,~,~
