~,~,~,~,o,o,o,~,~,~
~,~,~,c,~,~,~,~,~,~
~,~,c,~,~,~,~,~,~,~
~,t,c,~,~,~,~,~,~,~
~,t,c,~,~,~,~,~,~,~
~,~,~,~,~,~,~,~,~,~
~,~,~,~,~,p,p,p,p,p
~,~,~,~,~,s,~,~,~,~
~,~,~,~,~,s,~,~,~,~
~,~,~,~,~,s,~,~,~,~
