~,~,~,~,~,~,~,~,~,~
~,~,~,~,~,~,~,~,s,~
~,~,~,~,~,~,~,~,s,~
~,~,~,p,~,~,~,c,s,~
~,~,~,p,~,~,~,c,~,~
~,~,~,p,~,~,t,c,~,~
~,~,~,p,~,~,t,c,~,~
~,~,~,p,~,~,t,~,~,~
~,~,~,~,~,~,~,~,~,~
~,~,~,~,o,o,o,~,~,~
