~,~,~,~,~,~,~,~,s,~
~,~,c,c,c,c,~,~,s,~
~,~,~,~,~,~,~,~,s,~
~,p,p,p,~,~,~,~,~,~
~,~,t,~,~,~,~,~,~,~
~,o,t,~,~,~,~,~,~,~
~,o,~,~,~,~,~,~,~,~
~,o,~,~,~,~,~,~,~,~
~,o,~,~,~,~,~,~,~,~
~,o,~,~,~,~,~,~,~,~
