~,~,~,~,~,~,~,~,~,~
~,~,~,c,~,~,t,t,~,~
~,s,~,c,~,~,~,~,~,~
~,s,~,c,~,~,~,~,~,~
~,s,~,c,~,~,~,~,~,~
~,~,~,~,p,p,p,p,p,~
~,~,~,~,~,~,~,~,~,~
~,~,~,~,~,~,~,~,~,~
~,~,~,~,~,~,~,~,~,~
~,~,~,~,~,~,x,x,x,~
