o,o,o,~,~,~,~,~,~,~
~,~,~,~,~,~,~,~,~,~
~,~,~,~,~,~,~,~,p,~
~,~,~,~,~,~,~,c,p,~
~,~,~,~,~,~,~,c,p,~
~,~,~,~,~,~,~,c,p,~
~,~,~,~,~,~,~,c,p,~
~,~,~,~,~,~,~,~,p,~
~,~,~,~,t,t,~,~,~,~
~,s,s,s,~,~,~,~,~,~
