~,~,~,~,~,~,o,o,o,~
~,~,~,~,~,t,~,~,~,s
~,~,~,~,~,t,x,~,~,s
~,~,~,~,~,~,x,~,~,s
~,~,~,~,~,~,x,~,~,~
~,~,~,~,~,~,x,~,c,~
~,~,~,~,~,~,x,~,c,~
~,~,~,~,~,~,~,~,c,~
~,~,~,~,~,~,~,~,c,~
~,~,~,~,~,~,~,~,~,~
