~,~,~,~,~,~,~,~,~,~
o,o,o,~,~,~,~,~,~,c
~,t,t,~,~,~,~,~,~,c
~,~,~,~,~,s,s,s,~,c
~,~,~,~,~,~,~,~,~,c
~,~,~,~,~,~,~,~,~,~
~,~,~,~,~,~,~,~,~,~
~,~,~,~,~,~,~,~,~,~
~,~,~,~,~,~,~,~,~,~
~,~,~,~,p,p,p,p,p,~
