~,~,~,~,~,~,~,~,~,~
~,~,~,~,~,o,o,o,o,~
~,p,~,~,~,~,~,~,~,~
s,p,~,~,~,~,~,~,~,~
s,p,~,~,~,~,~,~,~,~
s,p,~,~,~,~,~,~,~,~
~,p,~,~,~,~,~,t,c,~
~,~,~,~,~,~,~,t,c,~
~,~,~,~,~,~,~,~,c,~
~,~,~,~,~,~,~,~,~,~
