~,~,~,~,~,~,c,~,~,~
~,~,~,~,~,~,c,~,~,~
~,~,~,~,~,~,c,~,~,~
~,~,~,~,~,t,c,~,~,~
~,~,p,p,p,p,p,~,~,~
~,~,~,~,~,t,o,o,o,~
~,~,~,~,~,~,~,s,~,~
~,~,~,~,~,~,~,s,~,~
~,~,~,~,~,~,~,s,~,~
~,~,~,~,~,~,~,~,~,~
