~,~,~,~,~,~,~,~,~,~
~,~,~,~,~,~,s,p,~,~
~,~,~,~,~,~,s,p,~,~
~,~,~,~,~,~,s,p,~,~
~,~,~,~,~,~,~,p,~,~
~,~,~,~,~,~,c,p,~,~
~,~,~,~,~,~,c,~,~,~
~,~,~,~,~,~,c,~,~,~
~,~,~,~,~,~,~,~,~,~
o,o,o,~,~,~,~,~,t,t
