~,s,~,~,~,~,~,~,~,~
~,s,~,~,~,~,~,~,~,~
~,s,~,~,~,~,~,~,~,~
~,~,~,~,~,~,~,~,p,~
~,~,~,~,~,~,~,~,p,t
~,~,~,~,c,c,c,c,p,t
~,~,~,~,~,~,~,~,~,~
~,~,~,~,~,~,~,~,~,~
~,~,~,~,~,~,~,~,~,~
~,~,~,o,o,o,o,o,~,~
