~,o,o,o,~,~,~,~,~,~
~,~,~,~,~,~,~,~,~,~
~,~,~,~,~,~,p,~,~,~
~,~,~,~,~,~,p,~,~,~
~,~,~,~,~,~,p,~,~,c
~,~,t,~,~,~,p,~,~,c
~,~,t,~,~,~,p,~,s,c
~,~,~,~,~,~,~,~,s,c
~,~,~,~,~,~,~,~,s,~
~,~,~,~,~,~,~,~,~,~
