~,t,t,~,~,~,~,~,c,~
~,~,~,~,~,~,~,~,c,~
~,o,~,~,~,~,~,~,c,~
~,o,~,~,~,~,~,~,c,~
~,o,~,s,s,s,~,~,~,~
~,~,~,~,~,~,~,p,~,~
~,~,~,~,~,~,~,p,~,~
~,~,~,~,~,~,~,p,~,~
~,~,~,~,~,~,~,p,~,~
~,~,~,~,~,~,~,p,~,~
