~,~,~,~,~,~,~,~,~,~
~,~,~,~,~,~,~,~,s,~
~,~,~,~,~,c,~,~,s,t
~,~,~,~,~,c,~,~,p,t
~,~,~,~,~,c,~,~,p,~
~,~,~,~,~,c,~,~,p,~
~,~,o,~,~,~,~,~,p,~
~,~,o,~,~,~,~,~,p,~
~,~,o,~,~,~,~,~,s,~
~,~,~,~,~,~,~,~,~,~
