~,o,o,~,~,~,s,~,~,~
~,~,~,~,~,~,s,~,c,~
~,~,~,~,~,~,s,~,c,~
~,~,~,~,~,~,~,~,c,~
~,~,~,~,~,~,~,~,c,~
~,~,~,~,~,~,~,~,~,~
~,~,t,p,p,p,p,p,~,~
~,~,t,~,~,~,~,~,~,~
~,~,t,~,~,~,~,~,~,~
~,~,~,~,~,~,~,~,~,~
