~,~,~,~,~,~,~,~,~,~
~,~,~,~,~,~,~,~,~,o
~,~,~,~,~,~,~,~,~,o
~,~,~,x,t,~,~,s,~,o
~,~,~,x,t,~,~,s,~,~
~,~,~,x,~,~,~,s,~,~
~,~,~,x,~,~,c,c,c,c
~,~,~,x,~,~,~,~,~,~
~,~,~,~,~,~,~,~,~,~
~,~,~,~,~,~,~,~,~,~
