~,~,~,t,t,~,~,~,~,~
~,~,p,~,~,~,~,~,~,~
~,~,p,~,~,~,~,o,o,o
~,~,p,~,s,~,~,~,~,~
~,~,p,~,s,~,~,~,c,~
~,~,p,~,s,~,~,~,c,~
~,~,~,~,s,~,~,~,c,~
~,~,~,~,~,~,~,~,c,~
~,~,~,~,~,~,~,~,~,~
~,~,~,~,~,~,~,~,~,~
