~,~,c,~,~,~,~,~,~,~
~,~,c,~,~,~,~,~,~,~
p,p,p,p,p,t,t,~,~,~
~,~,c,~,~,~,~,~,~,~
~,~,c,~,~,~,~,~,~,~
~,~,~,~,~,~,~,~,~,~
~,~,~,~,~,~,~,~,~,~
~,~,~,~,~,~,~,~,~,~
s,s,s,o,o,o,~,~,~,~
~,~,~,~,~,~,~,~,~,~
