~,~,~,~,~,~,~,s,s,s
~,t,t,~,c,c,c,c,~,~
~,~,~,~,~,~,~,~,~,~
~,~,~,~,~,~,~,~,~,~
~,~,~,~,~,~,~,~,~,~
~,~,~,~,~,~,~,~,~,~
~,~,~,~,~,~,~,~,~,~
~,~,~,~,~,~,~,~,~,~
~,~,~,~,~,~,~,x,x,x
~,~,p,p,p,p,p,~,~,~
