~,~,~,~,~,~,~,~,~,~
~,~,~,~,~,~,~,~,~,~
~,~,~,~,~,~,~,~,~,~
~,~,~,o,t,s,~,~,~,~
~,~,~,o,t,s,~,~,~,~
c,~,~,o,~,s,~,~,~,~
c,~,~,~,~,p,p,p,p,p
c,~,~,~,~,~,~,~,~,~
c,~,~,~,~,~,~,~,~,~
c,~,~,~,~,~,~,~,~,~
