o,~,~,~,~,~,~,~,~,~
o,~,~,~,c,~,~,~,~,~
p,~,~,~,c,~,s,s,s,~
p,~,~,~,c,~,~,~,~,~
p,~,~,~,c,~,~,~,~,~
p,~,~,~,~,~,~,~,~,~
p,~,~,~,~,~,~,~,~,~
o,~,~,~,~,~,~,~,~,~
~,~,~,~,~,~,~,~,~,~
~,~,~,~,t,t,~,~,~,~
