~,~,~,~,~,~,c,~,~,~
~,~,~,~,o,~,c,~,~,~
~,~,~,~,o,~,c,~,~,~
~,~,s,~,o,~,c,t,t,~
~,~,s,~,~,~,~,~,~,~
~,~,s,~,~,~,~,~,~,~
~,p,p,p,p,p,~,~,~,~
~,~,~,~,~,~,~,~,~,~
~,~,~,~,~,~,~,~,~,~
~,~,~,~,~,~,~,~,~,~
