~,~,~,c,~,p,~,~,~,~
~,~,~,c,~,p,~,~,~,~
~,~,~,c,~,p,~,s,s,s
~,~,~,c,~,p,~,~,~,~
~,~,~,o,~,p,~,~,~,~
~,~,~,o,~,p,~,~,~,~
~,~,~,o,~,~,~,~,~,~
~,~,~,~,~,~,~,~,~,~
t,~,~,~,~,~,~,~,~,~
t,~,~,~,~,~,~,~,~,~
