~,~,o,~,~,~,~,~,~,~
~,~,o,~,~,~,~,~,~,~
~,~,o,~,~,~,~,s,s,s
~,~,~,~,~,~,~,~,~,~
~,~,~,~,~,~,~,~,~,~
~,~,~,~,p,~,~,~,~,~
~,~,~,p,~,~,~,~,~,~
~,~,p,~,~,~,~,~,t,t
~,p,~,~,~,~,c,c,c,c
p,~,~,~,~,~,~,~,~,~
