~,~,~,~,~,~,~,~,~,~
~,~,~,~,~,~,~,~,~,~
~,~,~,~,~,~,c,~,~,~
~,~,~,x,~,~,c,~,~,~
~,~,~,x,~,~,c,~,~,~
~,~,~,x,~,~,c,~,~,~
~,~,~,~,~,~,~,~,~,~
~,~,~,~,~,~,~,~,~,~
t,t,~,~,~,~,~,~,~,~
p,p,p,p,p,o,o,o,~,~
