~,~,~,~,~,~,~,o,~,~
~,~,~,~,~,~,~,o,~,~
~,~,~,~,~,~,~,o,~,~
~,~,~,~,~,~,~,~,~,~
~,~,~,~,~,~,~,~,~,~
~,~,~,c,c,c,c,~,~,~
~,~,x,x,~,~,~,s,s,s
~,~,~,~,~,~,~,~,~,~
~,~,~,~,p,p,p,p,p,~
~,~,~,~,~,~,~,~,~,~
