~,~,~,~,~,~,s,s,s,~
~,c,~,~,~,~,~,~,~,~
~,c,~,~,~,o,o,o,~,~
~,c,~,~,~,~,~,~,~,~
~,c,~,~,~,~,~,~,~,p
~,~,~,~,~,~,~,~,p,~
~,~,~,~,~,~,~,p,~,~
~,~,~,~,~,~,p,~,~,~
~,~,~,~,~,p,~,~,~,~
~,t,t,~,~,~,~,~,~,~
