~,~,~,~,~,~,~,~,~,~
~,~,~,~,~,~,~,~,~,~
~,~,~,~,~,~,~,~,~,~
x,~,~,~,~,~,~,~,~,~
x,~,~,~,~,~,~,~,~,~
x,~,~,~,~,~,c,c,c,c
~,~,~,~,~,~,~,~,~,~
~,p,p,p,p,p,~,~,s,~
~,~,~,~,~,t,~,~,s,~
~,~,~,~,~,t,~,~,s,~
