~,~,~,~,~,~,~,~,~,s
~,~,~,o,o,o,~,~,s,~
~,~,~,~,~,~,~,s,~,~
~,~,~,~,~,~,~,~,~,~
~,~,~,~,~,~,~,~,~,~
~,~,~,~,~,~,~,~,~,~
~,~,~,~,~,c,c,c,c,~
~,~,~,~,~,~,~,~,~,~
~,p,p,p,p,p,~,t,t,~
~,~,~,~,~,~,~,~,~,~
