~,~,~,~,~,~,~,~,~,~
~,~,~,~,~,~,~,~,~,~
~,~,~,~,~,~,p,~,~,~
~,~,~,~,~,~,p,~,~,~
o,~,~,c,~,~,p,~,~,~
o,~,~,c,s,~,p,~,~,~
o,~,~,c,s,~,p,~,~,~
~,~,~,c,s,~,~,~,~,~
~,~,~,~,~,~,~,~,~,~
~,~,~,~,~,~,~,t,t,~
