~,~,~,~,~,~,~,~,~,~
~,~,~,~,~,~,~,~,~,~
~,~,~,~,~,~,~,~,~,~
~,~,~,~,~,~,~,~,~,~
~,~,~,~,~,~,o,c,~,~
~,~,~,~,~,~,o,c,~,~
t,t,~,~,~,~,o,c,~,~
~,~,~,~,~,~,c,~,s,~
~,~,~,~,~,~,~,~,s,~
~,~,p,p,p,p,p,~,s,~
