~,~,c,~,s,s,s,~,~,~
~,~,c,~,~,~,~,~,~,~
~,~,c,~,~,~,~,~,~,~
~,~,c,~,~,~,~,~,~,~
t,~,~,x,x,x,x,x,o,~
t,~,~,~,~,~,~,~,o,~
~,~,~,~,~,~,~,~,o,~
~,~,~,~,~,~,~,~,~,~
~,~,~,~,~,~,~,~,~,~
~,~,~,~,~,~,~,~,~,~
