~,~,~,~,~,~,~,~,~,~
~,~,~,~,~,~,~,~,~,~
~,~,~,~,~,~,~,~,~,~
~,~,~,~,~,~,~,~,~,~
~,s,~,~,~,~,~,~,~,~
~,s,~,~,~,~,o,o,o,~
~,s,~,~,~,~,t,t,~,~
c,c,c,c,~,~,~,~,~,~
~,~,~,~,~,p,p,p,p,~
~,~,~,~,p,~,~,~,~,~
