~,~,~,~,p,p,p,p,p,~
~,~,~,s,s,s,~,~,~,~
~,~,~,~,~,~,~,~,~,~
~,~,~,~,~,~,~,~,~,~
~,~,~,~,~,o,~,t,~,~
~,~,~,~,~,o,~,t,~,~
~,~,~,~,~,o,~,~,~,~
~,~,~,~,~,~,~,~,~,~
~,~,~,~,~,~,~,~,~,~
c,c,c,c,~,~,~,~,~,~
