~,~,~,~,~,~,~,~,~,~
~,~,~,~,~,p,o,~,~,~
~,~,~,~,~,p,o,~,~,~
~,~,~,~,~,p,o,~,~,~
c,c,c,c,~,s,~,~,~,~
~,~,~,~,~,s,~,~,~,~
~,~,~,~,~,s,~,t,~,~
~,~,~,~,~,s,~,t,~,~
~,~,~,~,~,s,~,~,~,~
~,~,~,~,~,~,~,~,~,~
