~,~,~,~,~,~,~,~,x,~
~,~,~,p,p,p,p,p,x,~
~,~,~,~,~,~,~,~,x,~
~,~,~,~,~,~,~,~,~,~
~,~,~,~,~,~,~,~,~,~
~,~,~,~,~,~,~,~,~,c
~,~,~,~,~,~,~,~,~,c
~,~,s,~,~,~,~,~,~,c
~,~,s,~,~,~,~,~,t,c
~,~,s,~,~,~,~,~,t,~
