~,~,~,~,~,~,~,~,~,~
~,~,~,~,~,~,~,~,~,~
~,~,~,~,~,~,~,p,~,~
~,c,~,~,~,~,~,p,o,~
~,c,~,~,~,~,~,p,o,~
~,~,~,~,~,~,~,p,o,~
~,~,~,~,~,s,~,p,~,~
~,~,~,~,~,s,~,~,~,~
~,~,~,~,~,s,~,~,~,~
~,~,~,~,t,t,t,t,~,~
