~,~,~,~,~,~,~,~,~,~
~,~,~,~,~,t,t,~,~,p
~,~,~,~,~,~,~,~,~,p
~,~,~,~,~,~,~,~,~,p
~,~,~,~,~,~,~,~,~,p
o,~,~,~,~,~,~,~,~,p
o,c,c,c,c,s,s,s,~,~
o,~,~,~,~,~,~,~,~,~
~,~,~,~,~,~,~,~,~,~
~,~,~,~,~,~,~,~,~,~
