~,~,~,~,~,~,~,~,~,~
~,~,t,t,~,~,~,~,~,~
~,~,~,~,~,c,c,c,c,~
~,~,~,~,~,~,~,~,~,~
~,~,~,~,~,~,~,~,~,~
~,~,~,~,p,~,~,o,o,o
~,~,~,~,p,s,s,s,~,~
~,~,~,~,p,~,~,~,~,~
~,~,~,~,p,~,~,~,~,~
~,~,~,~,p,~,~,~,~,~
