~,~,~,~,~,~,~,~,~,~
~,~,~,~,~,~,~,~,~,~
~,~,~,~,~,~,~,~,~,~
~,~,~,~,~,~,~,~,~,~
~,~,~,~,~,~,~,~,~,~
~,p,~,~,~,~,~,~,~,~
~,p,~,~,~,~,~,~,o,o
~,p,~,~,~,c,c,c,c,~
~,p,~,~,~,~,~,~,~,~
~,p,~,~,s,s,s,~,t,t
