~,~,~,~,~,~,~,~,~,~
~,~,~,~,~,o,~,~,~,~
~,~,~,~,~,o,~,~,~,~
~,~,~,~,~,o,~,~,~,~
~,~,p,~,~,~,~,~,~,~
~,~,p,~,~,c,c,c,c,~
~,~,p,~,~,~,~,~,~,~
~,~,p,~,~,~,~,~,t,~
s,s,p,s,~,~,~,~,t,~
~,~,~,~,~,~,~,~,~,~
