~,~,~,~,~,~,~,~,~,~
~,~,t,~,~,c,c,c,c,~
~,~,t,~,~,~,~,~,~,~
s,~,~,~,~,~,~,~,~,~
p,p,p,p,p,~,~,~,~,~
s,~,~,o,o,o,~,~,~,~
s,~,~,~,~,~,~,~,~,~
~,~,~,~,~,~,~,~,~,~
~,~,~,~,~,~,~,~,~,~
~,~,~,~,~,~,~,~,~,~
