~,~,~,~,~,x,~,~,~,~
~,~,~,~,~,x,~,~,c,~
~,~,~,~,~,x,~,~,c,~
~,~,~,~,~,~,~,~,c,~
~,~,~,~,~,~,~,~,c,~
~,~,~,~,~,~,~,~,t,~
~,~,~,~,~,~,~,~,t,~
~,~,~,~,~,~,~,~,~,~
~,~,~,~,~,~,~,~,~,~
s,s,s,~,~,p,p,p,p,p
