c,c,c,c,x,x,x,~,~,~
~,~,~,~,~,~,~,~,~,~
~,~,~,~,~,~,~,~,~,~
~,~,~,~,~,~,~,~,~,~
~,t,t,~,~,~,~,p,~,~
~,o,o,o,~,~,~,p,~,~
~,~,~,~,~,~,~,p,~,~
~,~,~,~,~,~,~,p,~,~
~,~,~,~,~,~,~,p,~,~
~,~,~,~,~,~,~,~,~,~
