~,~,~,~,~,~,~,~,~,~
~,~,~,~,~,~,~,~,~,~
~,~,~,~,~,s,s,s,~,~
~,~,~,~,~,~,~,~,~,~
~,~,~,~,~,~,~,~,c,~
~,~,~,~,~,~,~,~,c,~
~,~,~,~,~,t,~,~,c,~
~,~,~,o,o,t,o,~,c,~
~,~,~,~,~,~,~,~,~,~
p,p,p,p,p,~,~,~,~,~
