~,~,~,~,~,~,~,~,~,p
~,~,~,~,~,~,~,~,~,p
~,~,s,s,s,~,~,~,~,p
~,~,~,~,~,~,~,~,~,p
~,~,~,~,~,~,~,~,~,p
~,~,~,~,~,~,~,~,~,~
~,~,o,o,o,~,~,~,~,~
~,~,c,c,c,c,~,~,~,~
~,t,~,~,~,~,~,~,~,~
~,~,t,~,~,~,~,~,~,~
