p,~,~,~,~,t,~,~,~,~
p,~,~,~,~,t,~,~,~,~
p,~,~,o,s,s,s,~,~,~
p,~,~,o,~,~,~,~,~,~
p,~,~,o,~,~,~,~,~,~
~,~,~,~,~,~,~,~,~,~
~,~,~,~,~,~,~,~,~,~
~,~,~,~,~,~,~,~,~,~
c,c,c,c,~,~,~,~,~,~
~,~,~,~,~,~,~,~,~,~
