~,~,~,~,~,~,c,~,~,~
~,~,~,~,~,~,c,~,~,~
~,~,~,~,~,p,c,~,~,~
~,~,~,~,~,p,c,~,~,~
~,~,~,~,~,p,~,~,~,~
o,o,o,~,~,p,~,~,s,~
~,~,t,~,~,p,~,~,s,~
~,~,~,t,~,~,~,~,s,~
~,~,~,~,~,~,~,~,~,~
~,~,~,~,~,~,~,~,~,~
