~,~,~,~,~,~,~,o,o,o
~,~,~,~,~,~,~,~,~,~
~,~,~,p,p,p,p,~,p,~
~,~,~,~,~,~,~,~,~,~
~,~,~,~,c,~,~,~,~,~
~,~,~,~,c,~,~,~,~,~
~,t,t,~,c,~,~,~,~,~
~,~,s,~,c,~,~,~,~,~
~,~,s,~,~,~,~,~,~,~
~,~,s,~,~,~,~,~,~,~
