~,~,~,~,~,~,~,~,t,~
~,~,~,p,~,s,s,s,t,~
c,c,c,p,c,~,~,~,~,~
~,~,~,p,~,~,~,~,~,~
~,o,~,p,~,~,~,~,~,~
~,o,~,p,~,~,~,~,~,~
~,o,~,~,~,~,~,~,~,~
~,~,~,~,~,~,~,~,~,~
~,~,~,~,~,~,~,~,~,~
~,~,~,~,~,~,~,~,~,~
