~,~,~,p,p,p,p,p,~,~
~,~,~,~,~,~,s,s,s,~
~,~,~,~,~,~,~,~,~,~
~,~,~,~,x,x,~,~,~,~
~,~,~,~,~,~,~,~,~,~
~,~,~,~,~,~,~,~,~,~
~,~,~,~,~,c,~,~,~,~
~,~,~,~,~,c,~,~,~,~
~,~,~,~,~,c,~,~,~,~
o,o,o,~,~,c,~,~,~,~
