~,~,~,t,~,~,~,~,c,~
~,~,~,s,~,~,~,p,c,~
~,~,~,s,~,~,~,p,c,~
~,~,~,s,~,~,~,p,c,~
~,~,~,t,~,o,~,p,~,~
~,~,~,~,~,o,~,p,~,~
~,~,~,~,~,o,~,~,~,~
~,~,~,~,~,~,~,~,~,~
~,~,~,~,~,~,~,~,~,~
~,~,~,~,~,~,~,~,~,~
