~,~,~,~,~,~,~,~,~,~
s,s,s,~,~,~,~,~,~,~
~,~,~,~,~,~,~,~,p,o
~,~,~,~,~,~,~,~,p,~
~,t,~,~,~,~,~,~,p,o
~,t,~,~,~,~,~,~,p,o
~,~,~,~,~,~,~,~,p,~
~,~,~,~,~,~,~,~,~,~
~,~,~,~,~,~,~,~,~,~
~,~,c,c,c,c,~,~,~,~
