~,~,~,~,o,o,o,~,~,~
~,~,~,~,~,~,~,~,~,~
~,~,~,~,~,~,~,~,~,~
~,~,~,~,~,~,~,~,~,~
~,~,~,~,~,~,~,~,~,~
c,c,c,c,~,~,~,~,~,~
~,~,~,p,p,p,p,p,~,~
t,~,~,~,~,s,~,~,~,~
t,~,~,~,~,s,~,~,~,~
~,~,~,~,~,s,~,~,~,~
