~,~,~,~,~,~,~,~,~,~
~,~,~,~,~,~,~,~,~,~
~,~,~,~,~,~,~,~,~,~
~,~,~,~,~,~,~,~,c,~
~,~,~,~,~,~,~,~,c,~
~,~,~,~,~,s,p,~,c,~
~,~,~,~,~,s,p,~,c,~
~,~,~,~,~,s,p,~,~,~
~,~,~,~,~,~,p,~,~,~
t,t,~,~,~,~,p,o,o,o
