~,~,~,~,~,~,~,~,~,~
~,~,~,~,~,~,~,~,~,~
~,~,~,~,~,~,~,o,o,o
~,~,~,~,~,~,~,~,~,~
~,~,~,c,c,c,c,t,~,~
~,~,~,~,~,~,~,t,~,~
~,~,~,~,~,~,~,~,~,~
~,~,~,~,~,~,~,~,~,~
~,~,~,~,p,p,p,p,p,p
~,~,s,s,s,~,~,~,~,~
