~,x,~,~,~,~,~,~,~,~
~,x,~,~,~,~,~,~,~,~
~,x,~,~,~,~,~,~,~,~
~,x,~,~,~,~,~,~,~,~
~,x,~,~,~,~,~,~,~,~
~,~,~,~,~,~,~,s,s,s
~,~,~,~,~,c,c,c,c,~
~,~,~,~,~,t,~,~,~,~
~,~,~,~,~,t,~,~,~,~
~,~,~,~,~,~,~,o,o,o
