~,~,~,p,p,p,p,p,~,~
~,~,~,~,~,~,o,~,~,~
~,~,~,~,~,~,o,~,~,~
~,~,~,t,~,~,o,~,~,~
c,~,~,t,~,~,~,~,~,~
c,~,~,~,~,~,~,~,~,~
c,~,~,~,~,~,~,~,~,~
c,~,~,~,~,~,~,~,~,~
~,~,x,x,x,~,~,~,~,~
~,~,~,~,~,~,~,~,~,~
