~,~,~,~,c,c,c,c,~,~
~,~,~,~,~,~,~,~,~,~
~,~,s,s,s,~,~,~,~,~
~,~,~,~,~,~,~,~,~,t
~,~,~,~,~,~,p,~,~,~
~,~,~,~,~,~,p,~,~,o
~,~,~,~,~,~,p,~,~,o
~,~,~,~,~,~,p,~,~,o
~,~,~,~,~,~,p,~,~,~
~,~,~,~,~,~,~,~,~,~
