~,~,~,~,~,~,~,~,~,~
~,~,~,~,~,~,~,~,~,~
~,~,~,~,~,~,~,~,~,t
~,~,~,~,~,~,~,~,s,t
~,~,~,~,~,~,~,~,s,~
~,~,~,~,p,p,p,p,p,~
~,o,o,o,~,c,c,c,c,~
~,~,~,~,~,~,~,~,s,~
~,~,~,~,~,~,~,~,~,~
~,~,~,~,~,~,~,~,~,~
