~,~,p,~,~,~,~,~,~,~
~,~,p,c,~,~,~,~,~,~
~,~,p,c,~,~,~,~,~,~
~,~,p,c,~,~,~,~,~,~
~,~,p,c,~,~,~,~,~,~
~,~,~,~,~,~,~,~,~,~
~,~,~,~,~,~,t,~,~,~
~,o,~,o,~,~,t,~,~,~
~,~,o,s,s,s,~,~,~,~
~,~,~,~,~,~,~,~,~,~
