~,~,~,~,~,~,~,~,~,~
~,~,~,~,~,~,~,~,~,~
~,~,~,~,~,~,~,~,t,t
~,~,~,c,~,~,~,~,~,~
~,~,~,c,~,~,~,~,~,~
~,~,~,c,~,~,~,~,~,~
~,~,~,c,~,~,~,~,~,~
~,~,~,c,~,~,~,~,~,~
~,s,s,s,~,o,o,o,~,~
~,~,~,~,p,p,p,p,~,~
