~,~,~,~,p,p,p,p,p,~
~,~,~,~,~,~,~,~,~,~
o,~,~,~,~,~,~,~,~,~
o,~,~,~,~,~,~,~,~,~
o,~,~,~,~,~,~,~,~,~
s,~,~,~,~,~,~,~,~,~
c,c,c,c,~,~,~,~,~,t
s,~,~,~,~,~,~,~,~,t
s,~,~,~,~,~,~,~,~,~
~,~,~,~,~,~,~,~,~,~
