~,~,~,~,~,~,o,~,o,o
~,~,~,~,~,~,~,t,~,~
~,~,~,~,~,s,~,t,c,~
p,p,p,p,p,s,~,~,c,~
~,~,~,~,~,s,~,~,c,~
~,~,~,~,~,~,~,~,c,~
~,~,~,~,~,~,~,~,~,~
~,~,~,~,~,~,~,~,~,~
~,~,~,~,~,~,~,~,~,~
~,~,~,~,~,~,~,~,~,~
