~,~,~,~,~,~,~,c,~,~
~,~,~,~,~,~,~,c,~,~
~,~,p,p,p,p,p,c,~,~
~,~,~,~,~,~,~,c,t,~
~,~,~,~,~,~,~,~,t,~
~,~,~,~,~,~,~,~,t,~
~,~,~,~,~,~,~,~,~,~
~,~,~,~,~,~,s,s,~,~
~,o,o,o,~,~,~,~,~,~
~,~,~,~,~,~,~,~,~,~
