~,~,~,~,~,~,~,~,~,~
~,~,~,~,~,~,~,~,~,~
~,~,~,~,~,~,~,p,~,~
~,~,o,o,o,~,~,p,~,~
~,~,~,~,~,~,~,p,~,~
~,~,~,~,t,t,~,p,~,~
s,s,~,s,~,~,~,p,~,~
~,~,~,~,~,~,~,~,~,~
~,~,~,~,~,c,c,c,c,~
~,~,~,~,~,~,~,~,~,~
