p,p,p,p,p,~,~,~,~,~
~,~,~,~,~,~,~,~,~,~
~,~,~,~,~,~,~,~,~,~
~,~,~,~,~,~,~,~,o,~
~,~,s,~,~,~,~,~,o,~
~,~,s,~,~,~,~,~,o,~
~,c,s,~,t,t,~,~,~,~
~,c,s,~,~,~,~,~,~,~
~,c,~,~,~,~,~,~,~,~
~,c,~,~,~,~,~,~,~,~
