~,~,~,t,t,~,~,~,~,~
~,~,~,~,~,~,~,~,~,~
~,~,~,~,~,~,~,~,~,~
~,s,s,s,~,~,~,~,~,~
~,~,~,~,~,~,~,~,~,~
o,~,~,~,~,~,p,~,c,~
o,~,~,~,~,~,p,~,c,~
o,~,~,~,~,~,p,~,c,~
~,~,~,~,~,~,p,~,c,~
~,~,~,~,~,~,p,~,~,~
