~,~,~,~,~,~,~,~,~,~
~,~,~,~,~,~,p,~,~,~
~,~,~,~,~,~,p,~,~,~
~,~,~,~,~,~,p,~,~,~
~,~,~,~,~,~,p,~,~,~
~,~,~,c,c,c,p,c,~,s
~,~,~,~,~,~,~,~,~,s
~,~,~,~,~,~,~,t,~,s
~,~,~,~,~,~,~,t,~,~
~,~,o,o,o,~,~,~,~,~
