~,o,o,t,o,~,~,~,~,~
~,~,~,c,~,~,~,~,~,~
~,~,~,c,~,~,~,~,~,~
~,p,~,c,~,~,~,~,~,~
~,p,~,c,~,~,~,~,~,~
~,p,~,t,~,~,~,~,~,s
~,p,~,~,~,~,~,~,~,s
~,p,~,~,~,~,~,~,~,s
~,~,~,~,~,~,~,~,~,~
~,~,~,~,~,~,~,~,~,~
