~,~,~,~,t,t,~,~,~,~
~,~,~,~,~,~,~,~,c,~
~,~,~,~,~,~,~,~,c,~
~,~,~,o,~,~,~,~,c,~
~,~,~,~,o,s,s,s,c,p
~,~,~,~,~,o,~,~,~,p
~,~,~,~,~,~,~,~,~,p
~,~,~,~,~,~,~,~,~,p
~,~,~,~,~,~,~,~,~,p
~,~,~,~,~,~,~,~,~,~
