~,~,~,~,~,~,~,~,~,~
~,~,~,~,~,~,~,~,~,~
~,~,~,~,~,~,~,~,t,t
~,~,~,~,~,p,p,p,p,p
~,~,~,~,~,~,~,~,~,~
~,~,~,~,~,~,~,~,~,~
~,~,~,~,~,~,c,c,c,c
o,o,o,~,~,~,s,~,~,~
~,~,~,~,~,~,~,s,~,~
~,~,~,~,~,~,~,~,s,~
