~,~,~,~,~,~,~,~,~,~
~,~,~,~,~,c,c,c,c,~
~,~,~,~,~,~,~,~,~,~
s,~,~,~,~,~,~,~,~,~
s,~,~,~,~,~,~,~,~,~
s,~,~,~,~,~,p,~,~,~
~,~,o,o,o,~,p,~,~,~
~,~,~,~,~,~,p,~,~,~
~,~,~,~,~,~,p,~,~,~
~,~,~,~,~,t,p,~,~,~
