~,~,~,~,~,~,~,~,~,~
~,~,~,~,~,~,~,~,~,~
t,~,~,~,~,~,~,~,~,~
t,~,~,~,~,~,~,~,~,~
~,~,~,~,c,~,~,~,~,~
~,~,~,~,c,~,~,~,~,~
~,~,~,~,c,~,~,~,~,~
~,~,~,~,c,~,o,o,o,~
~,~,~,~,~,~,~,~,~,~
s,p,p,p,p,p,s,s,~,~
