~,~,~,~,~,~,~,~,~,~
~,~,~,~,~,~,~,~,t,~
~,~,~,~,~,~,~,~,t,~
~,o,o,o,~,~,~,~,~,~
~,~,~,~,~,~,~,~,~,~
~,~,~,~,~,~,~,~,~,~
~,~,~,~,~,~,~,~,~,s
~,~,c,c,c,c,~,~,s,~
~,~,~,~,~,~,~,~,~,s
~,p,p,p,p,p,~,~,~,~
