~,~,~,~,~,~,~,~,~,~
~,~,~,t,~,~,~,~,~,~
~,~,~,t,~,~,~,~,~,~
~,s,~,~,~,~,~,~,~,~
~,s,~,o,o,o,o,~,~,~
~,s,~,~,~,~,c,c,c,c
~,~,~,~,~,p,p,p,p,p
~,~,~,~,~,~,~,~,~,~
~,~,~,~,~,~,~,~,~,~
~,~,~,~,~,~,~,~,~,~
