~,~,~,~,~,~,~,~,~,~
~,~,~,~,~,~,~,~,~,~
~,~,t,~,~,~,~,~,~,p
~,~,t,~,~,~,~,~,~,p
~,o,o,o,o,o,~,~,~,p
~,~,~,~,~,~,~,~,~,~
~,~,~,~,~,~,~,s,s,s
~,~,~,~,~,~,~,~,~,~
~,~,~,~,c,c,c,c,~,~
~,~,~,~,~,~,~,~,~,~
