~,~,~,~,~,~,~,s,~,~
~,~,~,~,~,~,~,s,~,~
~,~,~,~,~,~,~,s,~,~
o,o,o,~,~,~,~,~,~,~
~,t,~,~,~,~,~,c,~,~
p,p,p,p,p,~,~,c,~,~
~,t,~,~,~,~,~,c,~,~
~,~,~,~,~,~,~,c,~,~
~,~,~,~,~,~,~,~,~,~
~,~,~,~,~,~,~,~,~,~
