~,~,~,~,~,~,~,~,~,~
~,~,~,~,~,~,~,~,~,~
~,~,~,~,~,~,~,~,~,~
p,~,~,~,~,~,~,~,~,~
p,~,~,~,~,~,~,~,o,~
p,~,~,~,~,~,~,~,o,s
p,~,~,~,~,~,~,~,o,s
p,~,~,~,~,c,c,c,c,s
~,t,t,~,~,~,~,~,~,~
~,~,~,~,~,~,~,~,~,~
