~,~,~,~,~,~,c,c,c,c
~,~,~,~,~,~,~,~,~,~
~,~,~,~,~,p,~,~,~,~
t,~,~,~,~,p,~,~,~,~
t,~,o,o,o,p,~,~,~,~
~,~,~,~,~,p,~,~,~,~
~,~,~,~,~,p,~,~,~,~
s,s,s,~,~,~,~,~,~,~
~,~,~,~,~,~,~,~,~,~
~,~,~,~,~,~,~,~,~,~
