~,~,~,~,~,o,o,o,s,~
~,~,~,~,~,~,p,~,s,~
~,~,~,~,~,p,~,~,s,~
~,~,~,~,p,~,~,c,~,~
~,~,~,p,~,~,~,c,~,~
~,~,p,~,~,~,~,c,~,~
~,~,~,~,~,~,~,c,~,~
~,t,t,~,~,~,~,~,~,~
~,~,~,~,~,~,~,~,~,~
~,~,~,~,~,~,~,~,~,~
