~,~,~,~,~,~,~,~,~,~
~,~,~,~,~,~,~,~,c,~
~,~,~,~,~,~,t,~,c,~
~,~,~,~,~,~,t,~,c,~
~,~,~,~,~,o,~,~,c,p
~,~,~,~,~,~,o,o,~,p
~,~,~,~,~,~,~,~,~,p
~,~,~,~,~,~,~,~,~,p
~,~,~,~,~,~,~,~,~,p
s,s,s,~,~,~,~,~,~,~
