~,~,~,~,~,~,~,~,~,~
t,t,~,~,~,~,c,~,p,~
~,~,~,~,~,~,c,~,p,~
~,~,~,~,~,~,c,~,p,~
~,~,~,~,~,~,c,~,p,~
~,~,~,o,~,~,~,~,p,~
~,~,~,o,~,~,~,~,~,~
~,~,~,o,~,~,~,~,~,~
~,~,~,~,~,~,~,~,~,~
~,~,~,~,~,s,s,s,~,~
