p,~,~,~,~,~,~,~,~,~
p,~,~,~,~,c,~,~,o,~
p,~,~,~,~,c,~,~,o,~
p,~,~,~,~,c,~,~,o,~
p,~,~,~,~,c,~,~,~,t
~,~,~,~,~,~,~,x,~,t
~,~,~,~,~,~,~,x,~,~
~,~,~,~,~,~,~,x,~,~
~,~,~,~,~,~,~,~,~,~
~,~,~,~,~,~,~,~,~,~
