~,~,~,c,c,c,c,~,~,~
~,~,~,~,~,~,~,~,~,~
~,~,~,~,~,~,~,~,~,~
~,~,~,~,~,~,s,s,s,~
~,~,~,~,~,~,~,p,~,~
~,~,~,~,~,~,~,p,~,~
~,~,~,~,~,~,~,~,~,~
~,~,~,~,~,~,~,~,~,~
~,~,t,t,t,t,t,~,~,~
~,~,~,~,~,~,o,o,o,~
