~,~,c,c,c,c,~,~,~,~
~,~,~,~,~,~,~,~,~,o
~,~,s,~,~,~,~,~,~,o
~,~,~,s,t,t,~,~,~,o
~,~,~,~,s,~,~,~,~,~
~,~,~,~,~,~,~,~,~,~
~,~,~,~,~,~,~,~,~,~
~,~,~,~,~,~,~,~,~,~
~,~,~,~,~,~,~,~,~,~
~,~,~,p,p,p,p,p,~,~
