~,~,~,~,~,~,~,~,~,o
~,~,~,~,~,~,~,~,~,o
~,~,~,~,~,~,~,~,~,o
~,~,p,~,~,~,~,~,~,~
~,~,p,~,~,~,~,~,~,~
~,~,p,~,~,~,~,~,~,~
s,~,p,~,~,~,c,~,~,~
s,~,p,~,~,c,~,c,c,~
s,~,~,~,t,t,~,~,~,~
~,~,~,~,~,~,~,~,~,~
