~,~,~,c,c,c,c,~,~,o
~,~,~,~,~,~,~,~,~,o
x,x,x,~,~,~,~,~,~,o
~,~,~,~,~,~,~,~,~,~
~,~,~,~,~,~,~,~,~,~
~,~,~,~,~,~,~,~,~,p
~,~,~,~,~,~,~,~,~,p
~,~,~,~,~,~,~,~,~,p
~,~,~,~,~,~,t,t,~,p
~,~,~,~,~,~,~,~,~,p
