~,p,~,~,~,~,~,~,~,~
~,p,~,~,~,x,x,x,c,~
~,p,~,~,~,~,~,~,c,~
~,p,t,~,~,~,~,~,c,~
~,p,t,~,~,~,~,~,c,~
~,~,~,~,~,~,~,~,~,~
~,~,~,~,~,~,~,~,~,~
~,~,~,~,~,~,~,~,~,~
~,~,~,~,~,~,~,~,~,~
~,~,~,s,s,s,~,~,~,~
