~,~,~,~,~,c,~,~,~,~
~,~,~,~,~,~,c,~,~,~
~,~,~,~,~,~,~,c,~,~
s,~,~,~,~,~,~,~,c,~
s,~,~,~,~,~,~,~,~,~
s,~,~,~,~,~,~,t,t,~
~,~,~,~,~,~,~,~,~,~
~,~,~,~,~,~,~,~,~,~
~,~,~,~,~,~,~,~,~,~
~,~,p,p,p,p,p,o,o,o
