~,~,~,~,~,p,~,~,~,~
~,~,c,~,~,~,p,~,~,~
~,~,c,~,~,~,~,p,~,t
~,~,c,~,~,~,~,~,p,t
~,~,c,~,~,~,~,~,~,p
~,~,o,o,o,~,~,~,~,~
~,~,~,~,~,~,~,~,~,~
~,~,~,~,~,~,~,~,~,~
~,~,~,~,~,~,~,~,~,~
~,~,~,~,~,~,s,s,s,~
