~,~,~,~,~,~,~,~,~,~
~,~,~,p,~,~,~,~,~,~
~,~,~,p,~,~,~,~,~,~
~,~,~,p,~,~,c,c,c,c
~,~,~,p,~,~,~,~,~,~
~,~,~,p,~,~,~,~,~,~
~,~,~,~,t,~,~,~,~,~
~,~,~,~,t,~,~,~,~,~
o,o,o,~,~,~,~,~,~,~
s,s,s,~,~,~,~,~,~,~
