~,~,~,~,~,t,~,~,~,~
~,~,~,~,t,~,~,~,~,~
~,~,~,~,p,p,p,p,p,~
s,o,o,o,~,~,~,~,~,~
s,~,~,~,~,~,~,~,~,~
s,~,~,~,~,~,~,~,~,~
c,c,c,c,~,~,~,~,~,~
~,~,~,~,~,~,~,~,~,~
~,~,~,~,~,~,~,~,~,~
~,~,~,~,~,~,~,~,~,~
