~,~,~,~,~,~,~,~,~,t
~,~,~,~,~,~,~,~,~,t
~,~,p,~,~,~,~,~,~,~
~,~,p,~,~,~,~,~,~,~
~,~,p,~,~,~,o,o,o,~
~,~,p,~,~,~,~,~,~,~
~,~,p,~,c,c,c,c,~,~
~,~,~,~,~,~,~,~,~,~
~,~,~,~,~,~,~,~,~,~
~,~,~,~,~,~,~,s,s,s
