~,~,~,~,~,~,~,~,~,~
~,~,~,t,~,~,~,~,~,~
~,~,~,t,~,c,~,~,~,~
s,~,~,~,~,c,~,~,~,~
s,~,~,~,~,c,~,~,~,~
p,~,~,~,~,c,~,~,~,~
p,~,~,~,~,~,~,~,~,~
p,o,~,~,~,~,~,~,~,~
p,o,~,~,~,~,~,~,~,~
p,o,~,~,~,~,~,~,~,~
