~,~,~,~,~,~,~,~,~,~
~,~,~,~,~,~,~,~,~,~
~,~,~,~,~,~,~,~,~,s
~,~,~,~,~,c,~,~,~,s
~,~,~,~,c,~,~,~,~,s
~,~,~,c,~,~,~,~,~,~
~,~,c,~,o,o,o,~,~,~
~,~,~,~,~,~,~,~,~,~
~,~,~,~,p,p,p,p,p,~
~,t,t,~,~,~,~,~,~,~
