~,x,x,x,~,~,~,~,~,~
~,~,~,p,c,~,~,~,~,~
~,~,~,p,c,~,~,~,~,~
~,~,~,p,c,~,~,~,~,~
~,~,~,p,c,~,~,~,~,~
~,~,~,p,~,~,~,~,~,~
~,~,~,~,~,~,t,t,~,~
~,~,~,~,~,~,~,~,~,~
~,~,~,~,~,~,~,~,~,~
~,~,~,~,s,s,s,~,~,~
