~,~,~,~,~,~,~,~,~,~
~,~,~,~,~,~,~,~,~,~
~,~,~,~,~,~,~,~,~,~
~,~,~,~,~,~,c,s,~,~
~,~,~,~,t,~,c,s,~,~
o,~,~,~,t,~,c,s,~,~
p,p,p,p,p,~,c,~,~,~
o,~,~,~,~,~,~,~,~,~
o,~,~,~,~,~,~,~,~,~
~,~,~,~,~,~,~,~,~,~
