~,~,~,~,~,~,~,~,~,~
~,~,~,~,~,~,~,~,~,~
~,~,o,~,~,~,~,~,~,~
~,t,t,~,~,~,~,~,~,~
~,c,c,c,c,~,~,~,~,~
~,p,p,p,p,p,~,~,~,~
~,~,o,~,~,~,~,~,~,~
~,s,s,s,~,~,~,~,~,~
~,~,o,~,~,~,~,~,~,~
~,~,~,~,~,~,~,~,~,~
