~,~,~,~,~,~,~,~,~,~
~,~,~,~,~,~,~,~,~,~
~,~,~,~,c,~,~,s,s,s
~,~,~,~,c,~,~,~,~,~
~,~,~,~,c,t,t,~,~,~
~,~,~,~,c,~,~,~,~,~
~,~,~,~,~,~,~,~,~,~
~,~,~,~,~,~,~,~,~,~
~,~,p,p,~,p,p,o,o,o
~,~,~,~,p,~,~,~,~,~
